%
M48
M72
T01C0.0276
T02C0.0320
T03C0.0400
%
T01
X6506Y10150
X7506Y10150
X8506Y10150
X9506Y10150
X7506Y12900
X6006Y13650
X5506Y11150
X9506Y14400
X6756Y17400
X7756Y18150
X12756Y18900
X15006Y20400
X16006Y19650
X17006Y21900
X15756Y23150
X14756Y23150
X13756Y23150
X12756Y23150
X7756Y23150
X6756Y23150
X14506Y15150
X14506Y10150
X18881Y9275
X20881Y9275
X22756Y11400
X24006Y10150
X25006Y10150
X26006Y10150
X27006Y10150
X24756Y12900
X23756Y13650
X27006Y14400
X25256Y18150
X30256Y18900
X32256Y20400
X33756Y19650
X34256Y22150
X33256Y23150
X32256Y23150
X31256Y23150
X30256Y23150
X25256Y23150
X20881Y24025
X18881Y24025
X18881Y27275
X20881Y27275
X33006Y15900
X32006Y15150
X32006Y10150
X33006Y10150
X20881Y6025
X18881Y6025
T02
X4506Y6150
X5506Y6150
X6506Y6150
X7506Y6150
X8506Y6150
X9506Y6150
X10506Y6150
X11506Y6150
X12506Y6150
X13506Y6150
X14506Y6150
X15506Y6150
X16506Y6150
X17506Y6150
X17506Y9150
X16506Y9150
X15506Y9150
X14506Y9150
X13506Y9150
X12506Y9150
X11506Y9150
X10506Y9150
X9506Y9150
X8506Y9150
X7506Y9150
X6506Y9150
X5506Y9150
X4506Y9150
X3256Y9900
X3256Y11900
X8506Y11400
X10506Y10400
X11506Y10400
X12506Y11400
X22006Y9150
X23006Y9150
X24006Y9150
X25006Y9150
X26006Y9150
X27006Y9150
X28006Y9150
X29006Y9150
X30006Y9150
X31006Y9150
X32006Y9150
X33006Y9150
X34006Y9150
X35006Y9150
X35006Y6150
X34006Y6150
X33006Y6150
X32006Y6150
X31006Y6150
X30006Y6150
X29006Y6150
X28006Y6150
X27006Y6150
X26006Y6150
X25006Y6150
X24006Y6150
X23006Y6150
X22006Y6150
X28006Y10400
X29006Y10400
X30006Y11400
X26006Y11400
X36506Y21400
X36506Y23400
X35256Y24150
X34256Y24150
X33256Y24150
X32256Y24150
X31256Y24150
X30256Y24150
X29256Y24150
X28256Y24150
X27256Y24150
X26256Y24150
X25256Y24150
X24256Y24150
X23256Y24150
X22256Y24150
X22256Y27150
X23256Y27150
X24256Y27150
X25256Y27150
X26256Y27150
X27256Y27150
X28256Y27150
X29256Y27150
X30256Y27150
X31256Y27150
X32256Y27150
X33256Y27150
X34256Y27150
X35256Y27150
X29256Y22900
X28256Y22900
X27256Y21900
X31256Y21900
X17756Y24150
X16756Y24150
X15756Y24150
X14756Y24150
X13756Y24150
X12756Y24150
X11756Y24150
X10756Y24150
X9756Y24150
X8756Y24150
X7756Y24150
X6756Y24150
X5756Y24150
X4756Y24150
X4756Y27150
X5756Y27150
X6756Y27150
X7756Y27150
X8756Y27150
X9756Y27150
X10756Y27150
X11756Y27150
X12756Y27150
X13756Y27150
X14756Y27150
X15756Y27150
X16756Y27150
X17756Y27150
X11756Y22900
X10756Y22900
X9756Y21900
X13756Y21900
T03
X1006Y8900
X1006Y9900
X1006Y10900
X1006Y11900
X1006Y12900
X1006Y13900
X1006Y14900
X1006Y15900
X1756Y17400
X1756Y18400
X1756Y19400
X1756Y20400
X1756Y21400
X1756Y22400
X1756Y23400
X1756Y24400
X38006Y15900
X38006Y14900
X38006Y13900
X38006Y12900
X38006Y11900
X38006Y10900
X38006Y9900
X38006Y8900
X38756Y17400
X38756Y18400
X38756Y19400
X38756Y20400
X38756Y21400
X38756Y22400
X38756Y23400
X38756Y24400
M30
